<?xml version="1.0" encoding="UTF-8" standalone="no"?>
<!-- Created with matplotlib (http://matplotlib.org/) -->

<svg
   xmlns:dc="http://purl.org/dc/elements/1.1/"
   xmlns:cc="http://creativecommons.org/ns#"
   xmlns:rdf="http://www.w3.org/1999/02/22-rdf-syntax-ns#"
   xmlns:svg="http://www.w3.org/2000/svg"
   xmlns="http://www.w3.org/2000/svg"
   xmlns:xlink="http://www.w3.org/1999/xlink"
   xmlns:sodipodi="http://sodipodi.sourceforge.net/DTD/sodipodi-0.dtd"
   xmlns:inkscape="http://www.inkscape.org/namespaces/inkscape"
   height="288pt"
   version="1.1"
   viewBox="0 0 360 288"
   width="360pt"
   id="svg2"
   inkscape:version="0.91 "
   sodipodi:docname="cur-volt.svg">
  <metadata
     id="metadata223">
    <rdf:RDF>
      <cc:Work
         rdf:about="">
        <dc:format>image/svg+xml</dc:format>
        <dc:type
           rdf:resource="http://purl.org/dc/dcmitype/StillImage" />
      </cc:Work>
    </rdf:RDF>
  </metadata>
  <sodipodi:namedview
     pagecolor="#ffffff"
     bordercolor="#666666"
     borderopacity="1"
     objecttolerance="10"
     gridtolerance="10"
     guidetolerance="10"
     inkscape:pageopacity="0"
     inkscape:pageshadow="2"
     inkscape:window-width="1827"
     inkscape:window-height="1051"
     id="namedview221"
     showgrid="false"
     inkscape:zoom="1.3111111"
     inkscape:cx="473.13447"
     inkscape:cy="79.4564"
     inkscape:window-x="84"
     inkscape:window-y="-9"
     inkscape:window-maximized="1"
     inkscape:current-layer="figure_1" />
  <defs
     id="defs4">
    <marker
       inkscape:isstock="true"
       style="overflow:visible;"
       id="marker5307"
       refX="0.0"
       refY="0.0"
       orient="auto"
       inkscape:stockid="Arrow1Mend">
      <path
         transform="scale(0.4) rotate(180) translate(10,0)"
         style="fill-rule:evenodd;stroke:#000000;stroke-width:1pt;stroke-opacity:1;fill:#000000;fill-opacity:1"
         d="M 0.0,0.0 L 5.0,-5.0 L -12.5,0.0 L 5.0,5.0 L 0.0,0.0 z "
         id="path5309" />
    </marker>
    <marker
       inkscape:stockid="Arrow2Lend"
       orient="auto"
       refY="0.0"
       refX="0.0"
       id="Arrow2Lend"
       style="overflow:visible;"
       inkscape:isstock="true">
      <path
         id="path4898"
         style="fill-rule:evenodd;stroke-width:0.625;stroke-linejoin:round;stroke:#000000;stroke-opacity:1;fill:#000000;fill-opacity:1"
         d="M 8.7185878,4.0337352 L -2.2072895,0.016013256 L 8.7185884,-4.0017078 C 6.9730900,-1.6296469 6.9831476,1.6157441 8.7185878,4.0337352 z "
         transform="scale(1.1) rotate(180) translate(1,0)" />
    </marker>
    <marker
       inkscape:isstock="true"
       style="overflow:visible;"
       id="marker5217"
       refX="0.0"
       refY="0.0"
       orient="auto"
       inkscape:stockid="Arrow1Mend">
      <path
         transform="scale(0.4) rotate(180) translate(10,0)"
         style="fill-rule:evenodd;stroke:#000000;stroke-width:1pt;stroke-opacity:1;fill:#000000;fill-opacity:1"
         d="M 0.0,0.0 L 5.0,-5.0 L -12.5,0.0 L 5.0,5.0 L 0.0,0.0 z "
         id="path5219" />
    </marker>
    <marker
       inkscape:stockid="Arrow1Mend"
       orient="auto"
       refY="0.0"
       refX="0.0"
       id="Arrow1Mend"
       style="overflow:visible;"
       inkscape:isstock="true"
       inkscape:collect="always">
      <path
         id="path4886"
         d="M 0.0,0.0 L 5.0,-5.0 L -12.5,0.0 L 5.0,5.0 L 0.0,0.0 z "
         style="fill-rule:evenodd;stroke:#000000;stroke-width:1pt;stroke-opacity:1;fill:#000000;fill-opacity:1"
         transform="scale(0.4) rotate(180) translate(10,0)" />
    </marker>
    <marker
       inkscape:stockid="Arrow1Mstart"
       orient="auto"
       refY="0.0"
       refX="0.0"
       id="marker5143"
       style="overflow:visible"
       inkscape:isstock="true">
      <path
         id="path5145"
         d="M 0.0,0.0 L 5.0,-5.0 L -12.5,0.0 L 5.0,5.0 L 0.0,0.0 z "
         style="fill-rule:evenodd;stroke:#000000;stroke-width:1pt;stroke-opacity:1;fill:#000000;fill-opacity:1"
         transform="scale(0.4) translate(10,0)" />
    </marker>
    <marker
       inkscape:stockid="Arrow1Mstart"
       orient="auto"
       refY="0.0"
       refX="0.0"
       id="Arrow1Mstart"
       style="overflow:visible"
       inkscape:isstock="true">
      <path
         id="path4883"
         d="M 0.0,0.0 L 5.0,-5.0 L -12.5,0.0 L 5.0,5.0 L 0.0,0.0 z "
         style="fill-rule:evenodd;stroke:#000000;stroke-width:1.0pt"
         transform="scale(0.4) translate(10,0)" />
    </marker>
    <style
       type="text/css"
       id="style6">
*{stroke-linecap:butt;stroke-linejoin:round;}
  </style>
  </defs>
  <g
     id="figure_1">
    <g
       style="stroke-linecap:butt;stroke-linejoin:round"
       id="patch_2"
       transform="translate(10.786375,6.0403698)">
      <path
         inkscape:connector-curvature="0"
         id="path14"
         style="fill:#ffffff;stroke-linecap:butt;stroke-linejoin:round"
         d="m 45,252 279,0 0,-223.2 -279,0 z" />
    </g>
    <g
       style="stroke-linecap:butt;stroke-linejoin:round;fill:none;fill-opacity:1;stroke:#000000;stroke-opacity:1"
       id="line2d_1">
      <path
         inkscape:connector-curvature="0"
         id="path20"
         style="fill:none;stroke:#000000;stroke-linecap:square;stroke-linejoin:round;fill-opacity:1;stroke-opacity:1"
         d="M -214.4,483.615 M -1,265.279 l 2.82475,-1.427 6.975,-2.882 6.97495,-2.243 6.9751,-1.602 6.9749,-1.281 6.975,-1.281 6.9751,-0.641 6.9749,-0.961 6.975,-0.641 6.975,-0.32 6.975,-0.641 6.975,-0.64 6.975,0.32 0,-0.961 6.975,0 6.975,-0.641 6.9753,-0.961 6.975,-1.281 6.975,-2.242 6.975,-1.282 6.975,-2.562 6.975,-2.243 6.975,-3.203 6.975,-3.844 6.975,-4.166 6.975,-5.124 6.975,-6.087 6.975,-7.046 6.975,-8.009 6.975,-14.416 6.975,-10.89 6.975,-11.854 6.975,-13.453 6.975,-15.057 L 232,120.022 238.975,102.083 245.95,82.5421 252.925,59.798 259.9,34.1702 266.558,-1"
         clip-path="url(#pf61a67d692)" />
    </g>
    <path
       clip-path="url(#pf61a67d692)"
       d="M -57.951,272.181 M -1,252.393 -0.40725,252.32 4.824,252 l 5.2313,-0.32 5.2312,0 5.2312,0 5.2313,-0.321 0,0 5.2312,0 5.2313,0 5.2312,0 5.2313,0 5.2312,0 5.2313,-0.64 5.2312,0.32 5.2313,-0.641 5.2312,0 5.2313,-0.32 5.2312,0 5.2313,-0.32 5.2312,-0.321 5.2313,-0.32 5.2315,-0.641 5.231,-0.32 5.231,-0.32 5.231,-0.641 5.232,-0.32 5.231,-0.641 5.231,-1.281 5.231,-0.641 5.232,-1.282 5.231,-0.96 5.231,-1.282 5.231,-1.601 5.232,-1.602 5.231,-2.242 5.231,-2.243 5.231,-2.563 5.232,-3.203 5.231,-3.203 5.231,-4.165 5.231,-4.165 5.232,-8.008 5.231,-5.446 5.231,-6.087 5.231,-6.406 5.232,-7.367 5.231,-8.969 5.231,-9.291 5.231,-11.212 5.232,-13.454 5.231,-14.736 5.231,-16.336 5.231,-17.9385 5.232,-18.9006 5.231,-22.4226 L 282.08,18.4658 286.107,-1"
       style="fill:none;stroke:#000000;stroke-linecap:square;stroke-linejoin:round;stroke-width:1;stroke-miterlimit:4;stroke-dasharray:6, 6;stroke-dashoffset:0;fill-opacity:1;stroke-opacity:1"
       id="path23"
       inkscape:connector-curvature="0" />
    <path
       clip-path="url(#pf61a67d692)"
       d="M -232.361,498.547 M -1,278.282 l 5.78913,-5.87 6.97497,-5.786 6.975,-4.661 6.975,-3.697 6.975,-2.411 6.975,-1.768 6.975,-1.285 6.975,-0.643 6.975,-0.643 6.975,-0.161 6.975,0 0,-0.161 6.975,0 6.975,-0.321 6.975,-0.482 6.9749,-0.322 6.975,-0.321 6.975,-0.322 6.975,-0.321 6.975,-0.322 6.975,-0.482 6.975,-0.16 6.975,-0.483 6.975,-0.642 6.975,-0.804 6.975,-1.286 6.975,-1.286 6.975,-1.446 6.975,-1.447 6.975,-1.768 6.975,-3.857 6.975,-3.215 6.975,-4.501 6.975,-5.625 6.975,-7.392 6.975,-9.002 6.975,-11.091 6.975,-13.662 6.975,-15.912 6.975,-17.679 6.975,-21.215 6.975,-30.0566 6.975,-26.5206 6.975,-28.1255 6.975,-32.14746"
       style="fill:none;stroke:#000000;stroke-linecap:square;stroke-linejoin:round;stroke-width:1;stroke-miterlimit:4;stroke-dasharray:12, 12;stroke-dashoffset:0;stroke-opacity:1"
       id="path26"
       inkscape:connector-curvature="0" />
    <g
       style="stroke-linecap:butt;stroke-linejoin:round"
       id="patch_4">
      <path
         inkscape:connector-curvature="0"
         id="path29"
         style="fill:none;stroke:#000000;stroke-linecap:square;stroke-linejoin:miter"
         d="M 324,252 324,28.8" />
    </g>
    <g
       style="stroke-linecap:butt;stroke-linejoin:round"
       id="patch_5">
      <path
         inkscape:connector-curvature="0"
         id="path32"
         style="fill:none;stroke:#000000;stroke-linecap:square;stroke-linejoin:miter"
         d="M 45,252 45,28.8" />
    </g>
    <g
       style="stroke-linecap:butt;stroke-linejoin:round"
       id="patch_6">
      <path
         inkscape:connector-curvature="0"
         id="path35"
         style="fill:none;stroke:#000000;stroke-linecap:square;stroke-linejoin:miter"
         d="m 45,252 279,0" />
    </g>
    <g
       style="stroke-linecap:butt;stroke-linejoin:round"
       id="patch_7">
      <path
         inkscape:connector-curvature="0"
         id="path38"
         style="fill:none;stroke:#000000;stroke-linecap:square;stroke-linejoin:miter"
         d="m 45,28.8 279,0" />
    </g>
    <g
       style="stroke-linecap:butt;stroke-linejoin:round"
       id="text_1">
      <text
         id="text43"
         y="265.87796"
         x="45"
         style="font-style:normal;font-size:13px;font-family:'Bitstream Vera Sans';text-anchor:middle;stroke-linecap:butt;stroke-linejoin:round">−1.2</text>
    </g>
    <g
       style="stroke-linecap:butt;stroke-linejoin:round"
       id="line2d_4">
      <defs
         id="defs47">
        <path
           inkscape:connector-curvature="0"
           style="stroke:#000000;stroke-width:0.5;stroke-linecap:butt;stroke-linejoin:round"
           id="mc7db9fdffb"
           d="M 0,0 0,-4" />
      </defs>
      <g
         style="stroke-linecap:butt;stroke-linejoin:round"
         id="g50">
        <use
           height="100%"
           width="100%"
           id="use52"
           y="252"
           xlink:href="#mc7db9fdffb"
           x="114.75"
           style="stroke:#000000;stroke-width:0.5;stroke-linecap:butt;stroke-linejoin:round" />
      </g>
    </g>
    <g
       style="stroke-linecap:butt;stroke-linejoin:round"
       id="line2d_5">
      <defs
         id="defs55">
        <path
           inkscape:connector-curvature="0"
           style="stroke:#000000;stroke-width:0.5;stroke-linecap:butt;stroke-linejoin:round"
           id="m5a7d422ac3"
           d="M 0,0 0,4" />
      </defs>
      <g
         style="stroke-linecap:butt;stroke-linejoin:round"
         id="g58">
        <use
           height="100%"
           width="100%"
           id="use60"
           y="28.799999"
           xlink:href="#m5a7d422ac3"
           x="114.75"
           style="stroke:#000000;stroke-width:0.5;stroke-linecap:butt;stroke-linejoin:round" />
      </g>
    </g>
    <g
       style="stroke-linecap:butt;stroke-linejoin:round"
       id="text_2">
      <text
         id="text63"
         y="265.87796"
         x="114.75"
         style="font-style:normal;font-size:13px;font-family:'Bitstream Vera Sans';text-anchor:middle;stroke-linecap:butt;stroke-linejoin:round">−1.0</text>
    </g>
    <g
       style="stroke-linecap:butt;stroke-linejoin:round"
       id="line2d_6">
      <g
         style="stroke-linecap:butt;stroke-linejoin:round"
         id="g67">
        <use
           height="100%"
           width="100%"
           id="use69"
           y="252"
           xlink:href="#mc7db9fdffb"
           x="184.5"
           style="stroke:#000000;stroke-width:0.5;stroke-linecap:butt;stroke-linejoin:round" />
      </g>
    </g>
    <g
       style="stroke-linecap:butt;stroke-linejoin:round"
       id="line2d_7">
      <g
         style="stroke-linecap:butt;stroke-linejoin:round"
         id="g72">
        <use
           height="100%"
           width="100%"
           id="use74"
           y="28.799999"
           xlink:href="#m5a7d422ac3"
           x="184.5"
           style="stroke:#000000;stroke-width:0.5;stroke-linecap:butt;stroke-linejoin:round" />
      </g>
    </g>
    <g
       style="stroke-linecap:butt;stroke-linejoin:round"
       id="text_3">
      <text
         id="text77"
         y="265.87796"
         x="184.5"
         style="font-style:normal;font-size:13px;font-family:'Bitstream Vera Sans';text-anchor:middle;stroke-linecap:butt;stroke-linejoin:round">−0.8</text>
    </g>
    <g
       style="stroke-linecap:butt;stroke-linejoin:round"
       id="line2d_8">
      <g
         style="stroke-linecap:butt;stroke-linejoin:round"
         id="g81">
        <use
           height="100%"
           width="100%"
           id="use83"
           y="252"
           xlink:href="#mc7db9fdffb"
           x="254.25"
           style="stroke:#000000;stroke-width:0.5;stroke-linecap:butt;stroke-linejoin:round" />
      </g>
    </g>
    <g
       style="stroke-linecap:butt;stroke-linejoin:round"
       id="line2d_9">
      <g
         style="stroke-linecap:butt;stroke-linejoin:round"
         id="g86">
        <use
           height="100%"
           width="100%"
           id="use88"
           y="28.799999"
           xlink:href="#m5a7d422ac3"
           x="254.25"
           style="stroke:#000000;stroke-width:0.5;stroke-linecap:butt;stroke-linejoin:round" />
      </g>
    </g>
    <g
       style="stroke-linecap:butt;stroke-linejoin:round"
       id="text_4">
      <text
         id="text91"
         y="265.87796"
         x="254.25"
         style="font-style:normal;font-size:13px;font-family:'Bitstream Vera Sans';text-anchor:middle;stroke-linecap:butt;stroke-linejoin:round">−0.6</text>
    </g>
    <g
       style="stroke-linecap:butt;stroke-linejoin:round"
       id="line2d_10">
      <g
         style="stroke-linecap:butt;stroke-linejoin:round"
         id="g95">
        <use
           height="100%"
           width="100%"
           id="use97"
           y="252"
           xlink:href="#mc7db9fdffb"
           x="324"
           style="stroke:#000000;stroke-width:0.5;stroke-linecap:butt;stroke-linejoin:round" />
      </g>
    </g>
    <g
       style="stroke-linecap:butt;stroke-linejoin:round"
       id="line2d_11">
      <g
         style="stroke-linecap:butt;stroke-linejoin:round"
         id="g100">
        <use
           height="100%"
           width="100%"
           id="use102"
           y="28.799999"
           xlink:href="#m5a7d422ac3"
           x="324"
           style="stroke:#000000;stroke-width:0.5;stroke-linecap:butt;stroke-linejoin:round" />
      </g>
    </g>
    <g
       style="stroke-linecap:butt;stroke-linejoin:round"
       id="text_5">
      <text
         id="text105"
         y="265.87796"
         x="324"
         style="font-style:normal;font-size:13px;font-family:'Bitstream Vera Sans';text-anchor:middle;stroke-linecap:butt;stroke-linejoin:round">−0.4</text>
    </g>
    <g
       id="text_6"
       style="stroke-linecap:butt;stroke-linejoin:round">
      <text
         style="font-style:normal;font-size:13px;font-family:'Bitstream Vera Sans';text-anchor:middle;stroke-linecap:butt;stroke-linejoin:round"
         x="184.5"
         y="283.45953"
         id="text108">$V$, \si{\volt}</text>
    </g>
    <g
       style="stroke-linecap:butt;stroke-linejoin:round"
       id="line2d_12">
      <defs
         id="defs113">
        <path
           inkscape:connector-curvature="0"
           style="stroke:#000000;stroke-width:0.5;stroke-linecap:butt;stroke-linejoin:round"
           id="md7965d1ba0"
           d="M 0,0 4,0" />
      </defs>
      <g
         style="stroke-linecap:butt;stroke-linejoin:round"
         id="g116">
        <use
           height="100%"
           width="100%"
           id="use118"
           y="252"
           xlink:href="#md7965d1ba0"
           x="45"
           style="stroke:#000000;stroke-width:0.5;stroke-linecap:butt;stroke-linejoin:round" />
      </g>
    </g>
    <g
       style="stroke-linecap:butt;stroke-linejoin:round"
       id="line2d_13">
      <defs
         id="defs121">
        <path
           inkscape:connector-curvature="0"
           style="stroke:#000000;stroke-width:0.5;stroke-linecap:butt;stroke-linejoin:round"
           id="md9a1c1a7cd"
           d="M 0,0 -4,0" />
      </defs>
      <g
         style="stroke-linecap:butt;stroke-linejoin:round"
         id="g124">
        <use
           height="100%"
           width="100%"
           id="use126"
           y="252"
           xlink:href="#md9a1c1a7cd"
           x="324"
           style="stroke:#000000;stroke-width:0.5;stroke-linecap:butt;stroke-linejoin:round" />
      </g>
    </g>
    <g
       style="stroke-linecap:butt;stroke-linejoin:round"
       id="text_7">
      <text
         id="text129"
         y="255.58719"
         x="41"
         style="font-style:normal;font-size:13px;font-family:'Bitstream Vera Sans';text-anchor:end;stroke-linecap:butt;stroke-linejoin:round">0.0</text>
    </g>
    <g
       style="stroke-linecap:butt;stroke-linejoin:round"
       id="line2d_14">
      <g
         style="stroke-linecap:butt;stroke-linejoin:round"
         id="g133">
        <use
           height="100%"
           width="100%"
           id="use135"
           y="207.36"
           xlink:href="#md7965d1ba0"
           x="45"
           style="stroke:#000000;stroke-width:0.5;stroke-linecap:butt;stroke-linejoin:round" />
      </g>
    </g>
    <g
       style="stroke-linecap:butt;stroke-linejoin:round"
       id="line2d_15">
      <g
         style="stroke-linecap:butt;stroke-linejoin:round"
         id="g138">
        <use
           height="100%"
           width="100%"
           id="use140"
           y="207.36"
           xlink:href="#md9a1c1a7cd"
           x="324"
           style="stroke:#000000;stroke-width:0.5;stroke-linecap:butt;stroke-linejoin:round" />
      </g>
    </g>
    <g
       style="stroke-linecap:butt;stroke-linejoin:round"
       id="text_8">
      <text
         id="text143"
         y="210.94719"
         x="41"
         style="font-style:normal;font-size:13px;font-family:'Bitstream Vera Sans';text-anchor:end;stroke-linecap:butt;stroke-linejoin:round">0.2</text>
    </g>
    <g
       style="stroke-linecap:butt;stroke-linejoin:round"
       id="line2d_16">
      <g
         style="stroke-linecap:butt;stroke-linejoin:round"
         id="g147">
        <use
           height="100%"
           width="100%"
           id="use149"
           y="162.72"
           xlink:href="#md7965d1ba0"
           x="45"
           style="stroke:#000000;stroke-width:0.5;stroke-linecap:butt;stroke-linejoin:round" />
      </g>
    </g>
    <g
       style="stroke-linecap:butt;stroke-linejoin:round"
       id="line2d_17">
      <g
         style="stroke-linecap:butt;stroke-linejoin:round"
         id="g152">
        <use
           height="100%"
           width="100%"
           id="use154"
           y="162.72"
           xlink:href="#md9a1c1a7cd"
           x="324"
           style="stroke:#000000;stroke-width:0.5;stroke-linecap:butt;stroke-linejoin:round" />
      </g>
    </g>
    <g
       style="stroke-linecap:butt;stroke-linejoin:round"
       id="text_9">
      <text
         id="text157"
         y="166.30719"
         x="41"
         style="font-style:normal;font-size:13px;font-family:'Bitstream Vera Sans';text-anchor:end;stroke-linecap:butt;stroke-linejoin:round">0.4</text>
    </g>
    <g
       style="stroke-linecap:butt;stroke-linejoin:round"
       id="line2d_18">
      <g
         style="stroke-linecap:butt;stroke-linejoin:round"
         id="g161">
        <use
           height="100%"
           width="100%"
           id="use163"
           y="118.08"
           xlink:href="#md7965d1ba0"
           x="45"
           style="stroke:#000000;stroke-width:0.5;stroke-linecap:butt;stroke-linejoin:round" />
      </g>
    </g>
    <g
       style="stroke-linecap:butt;stroke-linejoin:round"
       id="line2d_19">
      <g
         style="stroke-linecap:butt;stroke-linejoin:round"
         id="g166">
        <use
           height="100%"
           width="100%"
           id="use168"
           y="118.08"
           xlink:href="#md9a1c1a7cd"
           x="324"
           style="stroke:#000000;stroke-width:0.5;stroke-linecap:butt;stroke-linejoin:round" />
      </g>
    </g>
    <g
       style="stroke-linecap:butt;stroke-linejoin:round"
       id="text_10">
      <text
         id="text171"
         y="121.66719"
         x="41"
         style="font-style:normal;font-size:13px;font-family:'Bitstream Vera Sans';text-anchor:end;stroke-linecap:butt;stroke-linejoin:round">0.6</text>
    </g>
    <g
       style="stroke-linecap:butt;stroke-linejoin:round"
       id="line2d_20">
      <g
         style="stroke-linecap:butt;stroke-linejoin:round"
         id="g175">
        <use
           height="100%"
           width="100%"
           id="use177"
           y="73.440002"
           xlink:href="#md7965d1ba0"
           x="45"
           style="stroke:#000000;stroke-width:0.5;stroke-linecap:butt;stroke-linejoin:round" />
      </g>
    </g>
    <g
       style="stroke-linecap:butt;stroke-linejoin:round"
       id="line2d_21">
      <g
         style="stroke-linecap:butt;stroke-linejoin:round"
         id="g180">
        <use
           height="100%"
           width="100%"
           id="use182"
           y="73.440002"
           xlink:href="#md9a1c1a7cd"
           x="324"
           style="stroke:#000000;stroke-width:0.5;stroke-linecap:butt;stroke-linejoin:round" />
      </g>
    </g>
    <g
       style="stroke-linecap:butt;stroke-linejoin:round"
       id="text_11">
      <text
         id="text185"
         y="77.027191"
         x="41"
         style="font-style:normal;font-size:13px;font-family:'Bitstream Vera Sans';text-anchor:end;stroke-linecap:butt;stroke-linejoin:round">0.8</text>
    </g>
    <g
       style="stroke-linecap:butt;stroke-linejoin:round"
       id="line2d_22">
      <g
         style="stroke-linecap:butt;stroke-linejoin:round"
         id="g189">
        <use
           height="100%"
           width="100%"
           id="use191"
           y="28.799999"
           xlink:href="#md7965d1ba0"
           x="45"
           style="stroke:#000000;stroke-width:0.5;stroke-linecap:butt;stroke-linejoin:round" />
      </g>
    </g>
    <g
       style="stroke-linecap:butt;stroke-linejoin:round"
       id="line2d_23">
      <g
         style="stroke-linecap:butt;stroke-linejoin:round"
         id="g194">
        <use
           height="100%"
           width="100%"
           id="use196"
           y="28.799999"
           xlink:href="#md9a1c1a7cd"
           x="324"
           style="stroke:#000000;stroke-width:0.5;stroke-linecap:butt;stroke-linejoin:round" />
      </g>
    </g>
    <g
       style="stroke-linecap:butt;stroke-linejoin:round"
       id="text_12">
      <text
         id="text199"
         y="32.387188"
         x="41"
         style="font-style:normal;font-size:13px;font-family:'Bitstream Vera Sans';text-anchor:end;stroke-linecap:butt;stroke-linejoin:round">1.0</text>
    </g>
    <g
       id="text_13"
       style="stroke-linecap:butt;stroke-linejoin:round">
      <text
         style="font-style:normal;font-size:13px;font-family:'Bitstream Vera Sans';text-anchor:middle;stroke-linecap:butt;stroke-linejoin:round"
         transform="matrix(0,-1,1,0,-126.19125,154.60875)"
         x="14.20875"
         y="140.39999"
         id="text202">$j$, \si{\milli\ampere\per\square\cm}</text>
    </g>
    <g
       style="stroke-linecap:butt;stroke-linejoin:round"
       id="text_14"
       transform="translate(5.6089148,-17.689654)">
      <text
         id="text205"
         y="77.903999"
         x="219.375"
         style="font-style:normal;font-size:13px;font-family:'Bitstream Vera Sans';text-anchor:start;stroke-linecap:butt;stroke-linejoin:round">$x$</text>
    </g>
    <g
       style="stroke-linecap:butt;stroke-linejoin:round"
       id="patch_9"
       transform="matrix(0.70167937,0,0,1.0420337,72.975831,-6.7516222)">
      <path
         inkscape:connector-curvature="0"
         id="path211"
         style="fill:none;stroke:#000000;stroke-width:1.16947174;stroke-linecap:round;stroke-linejoin:round"
         d="m 217.154,124.061 q 9.06,7.53 18.12,15.061" />
    </g>
    <g
       style="stroke-linecap:butt;stroke-linejoin:round"
       id="text_15">
      <text
         id="text214"
         y="118.33274"
         x="230.03822"
         style="font-style:normal;font-size:13px;font-family:'Bitstream Vera Sans';text-anchor:end;stroke-linecap:butt;stroke-linejoin:round">
        <tspan
           style="text-align:center;text-anchor:middle;stroke-linecap:butt;stroke-linejoin:round"
           id="tspan4871">$\Delta V$</tspan>
      </text>
    </g>
    <g
       id="g4647"
       transform="translate(-15.444374,-275.12948)"
       style="stroke-linecap:butt;stroke-linejoin:round">
      <g
         transform="translate(65.440748,229.95077)"
         id="text_13-3"
         style="stroke-linecap:butt;stroke-linejoin:round"
         inkscape:transform-center-x="82.407902"
         inkscape:transform-center-y="-38.830949">
        <text
           style="font-style:normal;font-size:13px;font-family:'Bitstream Vera Sans';text-anchor:middle;stroke-linecap:butt;stroke-linejoin:round"
           transform="matrix(0,-1,1,0,-126.19125,154.60875)"
           x="14.20875"
           y="140.39999"
           id="text202-5">$\Delta V$, \si{\milli\volt}</text>
      </g>
      <path
         style="fill:none;stroke:#000000;stroke-width:0.80000001px;stroke-linecap:butt;stroke-linejoin:miter;stroke-opacity:1"
         d="m 106.57065,325.10481 0,79.3995 99.38781,0"
         id="path24624"
         inkscape:connector-curvature="0" />
      <text
         xml:space="preserve"
         style="font-style:normal;font-variant:normal;font-weight:normal;font-stretch:normal;font-size:13.54673386px;line-height:125%;font-family:Arial;-inkscape-font-specification:Arial;text-align:start;letter-spacing:0px;word-spacing:0px;writing-mode:lr-tb;text-anchor:start;fill:#000000;fill-opacity:1;stroke:none;stroke-linecap:butt;stroke-linejoin:round"
         x="95.447754"
         y="410.48792"
         id="text24626"
         sodipodi:linespacing="125%"><tspan
           sodipodi:role="line"
           id="tspan24628"
           x="95.447754"
           y="410.48792"
           style="stroke-linecap:butt;stroke-linejoin:round">0</tspan></text>
      <text
         xml:space="preserve"
         style="font-style:normal;font-variant:normal;font-weight:normal;font-stretch:normal;font-size:13.54673386px;line-height:125%;font-family:Arial;-inkscape-font-specification:Arial;text-align:start;letter-spacing:0px;word-spacing:0px;writing-mode:lr-tb;text-anchor:start;fill:#000000;fill-opacity:1;stroke:none;stroke-linecap:butt;stroke-linejoin:round"
         x="80.366432"
         y="332.60989"
         id="text24626-3"
         sodipodi:linespacing="125%"><tspan
           sodipodi:role="line"
           id="tspan24628-4"
           x="80.366432"
           y="332.60989"
           style="stroke-linecap:butt;stroke-linejoin:round">100</tspan></text>
      <text
         sodipodi:linespacing="125%"
         id="text24651"
         y="371.54898"
         x="87.907089"
         style="font-style:normal;font-variant:normal;font-weight:normal;font-stretch:normal;font-size:13.54673386px;line-height:125%;font-family:Arial;-inkscape-font-specification:Arial;text-align:start;letter-spacing:0px;word-spacing:0px;writing-mode:lr-tb;text-anchor:start;fill:#000000;fill-opacity:1;stroke:none;stroke-linecap:butt;stroke-linejoin:round"
         xml:space="preserve"><tspan
           y="371.54898"
           x="87.907089"
           id="tspan24653"
           sodipodi:role="line"
           style="stroke-linecap:butt;stroke-linejoin:round">50</tspan></text>
      <path
         style="fill:none;stroke:#000000;stroke-width:0.80000001px;stroke-linecap:butt;stroke-linejoin:miter;stroke-opacity:1"
         d="m 108.81128,331.8265 91.38555,68.05669"
         id="path24725"
         inkscape:connector-curvature="0" />
      <text
         sodipodi:linespacing="125%"
         id="text24727"
         y="417.28757"
         x="104.36202"
         style="font-style:normal;font-variant:normal;font-weight:normal;font-stretch:normal;font-size:13.54673386px;line-height:125%;font-family:Arial;-inkscape-font-specification:Arial;text-align:start;letter-spacing:0px;word-spacing:0px;writing-mode:lr-tb;text-anchor:start;fill:#000000;fill-opacity:1;stroke:none;stroke-linecap:butt;stroke-linejoin:round"
         xml:space="preserve"><tspan
           y="417.28757"
           x="104.36202"
           id="tspan24729"
           sodipodi:role="line"
           style="stroke-linecap:butt;stroke-linejoin:round">0</tspan></text>
      <text
         sodipodi:linespacing="125%"
         id="text24735"
         y="417.45294"
         x="152.93134"
         style="font-style:normal;font-variant:normal;font-weight:normal;font-stretch:normal;font-size:13.54673386px;line-height:125%;font-family:Arial;-inkscape-font-specification:Arial;text-align:start;letter-spacing:0px;word-spacing:0px;writing-mode:lr-tb;text-anchor:start;fill:#000000;fill-opacity:1;stroke:none;stroke-linecap:butt;stroke-linejoin:round"
         xml:space="preserve"><tspan
           y="417.45294"
           x="152.93134"
           id="tspan24737"
           sodipodi:role="line"
           style="stroke-linecap:butt;stroke-linejoin:round">1</tspan></text>
      <text
         sodipodi:linespacing="125%"
         id="text24743"
         y="417.45294"
         x="201.61569"
         style="font-style:normal;font-variant:normal;font-weight:normal;font-stretch:normal;font-size:13.54673386px;line-height:125%;font-family:Arial;-inkscape-font-specification:Arial;text-align:start;letter-spacing:0px;word-spacing:0px;writing-mode:lr-tb;text-anchor:start;fill:#000000;fill-opacity:1;stroke:none;stroke-linecap:butt;stroke-linejoin:round"
         xml:space="preserve"><tspan
           y="417.45294"
           x="201.61569"
           id="tspan24745"
           sodipodi:role="line"
           style="stroke-linecap:butt;stroke-linejoin:round">2</tspan></text>
      <path
         style="fill:none;stroke:#000000;stroke-width:0.80000001px;stroke-linecap:butt;stroke-linejoin:miter;stroke-opacity:1"
         d="m 106.49641,365.15735 2.02389,0 0,0"
         id="path24824"
         inkscape:connector-curvature="0" />
      <path
         inkscape:connector-curvature="0"
         id="path24826"
         d="m 106.60655,325.28112 2.02381,0 0,0"
         style="fill:none;stroke:#000000;stroke-width:0.80000001px;stroke-linecap:butt;stroke-linejoin:miter;stroke-opacity:1" />
      <path
         style="fill:none;stroke:#000000;stroke-width:0.80000001px;stroke-linecap:butt;stroke-linejoin:miter;stroke-opacity:1"
         d="m 181.56696,404.44965 0,-2.65624 0,0"
         id="path24828"
         inkscape:connector-curvature="0" />
      <path
         style="fill:none;stroke:#000000;stroke-width:0.80000001px;stroke-linecap:butt;stroke-linejoin:miter;stroke-opacity:1"
         d="m 157.12499,404.44965 0,-2.65624 0,0"
         id="path24832"
         inkscape:connector-curvature="0" />
      <path
         inkscape:connector-curvature="0"
         id="path24834"
         d="m 132.68313,404.44965 0,-2.65624 0,0"
         style="fill:none;stroke:#000000;stroke-width:0.80000001px;stroke-linecap:butt;stroke-linejoin:miter;stroke-opacity:1" />
      <path
         style="fill:none;stroke:#000000;stroke-width:0.80000001px;stroke-linecap:butt;stroke-linejoin:miter;stroke-opacity:1"
         d="m 205.692,404.44965 0,-2.65624 0,0"
         id="path24836"
         inkscape:connector-curvature="0" />
      <g
         style="stroke-linecap:butt;stroke-linejoin:round"
         id="text_6-9"
         transform="translate(-26.40897,174.26438)">
        <text
           id="text108-9"
           y="259.29807"
           x="181.04836"
           style="font-style:normal;font-size:13px;font-family:'Bitstream Vera Sans';text-anchor:middle;stroke-linecap:butt;stroke-linejoin:round">$10^{-9}\sqrt{N}$, \si{\cm^{-3/2}}</text>
      </g>
    </g>
    <path
       style="fill:none;fill-rule:evenodd;stroke:#000000;stroke-width:1.2;stroke-linecap:butt;stroke-linejoin:miter;stroke-opacity:1;marker-start:url(#marker5143);marker-end:url(#Arrow1Mend);stroke-miterlimit:4;stroke-dasharray:none"
       d="m 223.62712,138.50847 26.54237,0"
       id="path5141"
       inkscape:connector-curvature="0" />
    <path
       style="fill:none;fill-rule:evenodd;stroke:#000000;stroke-width:1.27999985;stroke-linecap:butt;stroke-linejoin:miter;stroke-miterlimit:4;stroke-dasharray:none;stroke-opacity:1;marker-end:url(#marker5307)"
       d="m 223.49367,66.663591 85.78001,0"
       id="path5209"
       inkscape:connector-curvature="0" />
    <path
       inkscape:connector-curvature="0"
       id="path5629"
       style="fill:none;fill-opacity:1;stroke:#000000;stroke-width:1;stroke-linecap:square;stroke-linejoin:round;stroke-miterlimit:4;stroke-dasharray:1, 8;stroke-dashoffset:2.79999995;stroke-opacity:1"
       d="M -232.361,498.547 M -1,278.282 l 5.78913,-5.87 6.97497,-5.786 6.975,-4.661 6.975,-3.697 6.975,-2.411 6.975,-1.768 6.975,-1.285 6.975,-0.643 6.975,-0.643 6.975,-0.161 6.975,0 0,-0.161 6.975,0 6.975,-0.321 6.975,-0.482 6.9749,-0.322 6.975,-0.321 6.975,-0.322 6.975,-0.321 6.975,-0.322 6.975,-0.482 6.975,-0.16 6.975,-0.483 6.975,-0.642 6.975,-0.804 6.975,-1.286 6.975,-1.286 6.975,-1.446 6.975,-1.447 6.975,-1.768 6.975,-3.857 6.975,-3.215 6.975,-4.501 6.975,-5.625 6.975,-7.392 6.975,-9.002 6.975,-11.091 6.975,-13.662 6.975,-15.912 6.975,-17.679 6.975,-21.215 6.975,-30.0566 6.975,-26.5206 6.975,-28.1255 6.975,-32.14746"
       clip-path="url(#pf61a67d692)" />
  </g>
  <defs
     id="defs216">
    <clipPath
       id="pf61a67d692">
      <rect
         height="223.2"
         width="279.0"
         x="45.0"
         y="28.8"
         id="rect219" />
    </clipPath>
  </defs>
</svg>
